<define-tag pagetitle>DLA-3239-1 git</define-tag>
<define-tag report_date>2022-12-14</define-tag>
<define-tag secrefs>CVE-2022-24765 CVE-2022-29187 CVE-2022-39253 CVE-2022-39260 Bug#1014848 Bug#1022046</define-tag>
<define-tag packages>git</define-tag>
<define-tag isvulnerable>yes</define-tag>
<define-tag fixed>yes</define-tag>
<define-tag fixed-section>no</define-tag>

#use wml::debian::security

