<define-tag pagetitle>DLA-3096-1 ghostscript</define-tag>
<define-tag report_date>2022-9-04</define-tag>
<define-tag secrefs>CVE-2020-27792</define-tag>
<define-tag packages>ghostscript</define-tag>
<define-tag isvulnerable>yes</define-tag>
<define-tag fixed>yes</define-tag>
<define-tag fixed-section>no</define-tag>

#use wml::debian::security

