<define-tag pagetitle>DLA-3188-1 sysstat</define-tag>
<define-tag report_date>2022-11-14</define-tag>
<define-tag secrefs>CVE-2019-16167 CVE-2019-19725 CVE-2022-39377 Bug#939914 Bug#946657 Bug#1023832</define-tag>
<define-tag packages>sysstat</define-tag>
<define-tag isvulnerable>yes</define-tag>
<define-tag fixed>yes</define-tag>
<define-tag fixed-section>no</define-tag>

#use wml::debian::security

