<define-tag pagetitle>DLA-2960-1 apache2</define-tag>
<define-tag report_date>2022-03-22</define-tag>
<define-tag secrefs>CVE-2022-22719 CVE-2022-22720 CVE-2022-22721 CVE-2022-23943</define-tag>
<define-tag packages>apache2</define-tag>
<define-tag isvulnerable>yes</define-tag>
<define-tag fixed>yes</define-tag>
<define-tag fixed-section>no</define-tag>

#use wml::debian::security

