<define-tag pagetitle>DLA-3028-1 atftp</define-tag>
<define-tag report_date>2022-5-27</define-tag>
<define-tag secrefs>CVE-2021-46671</define-tag>
<define-tag packages>atftp</define-tag>
<define-tag isvulnerable>yes</define-tag>
<define-tag fixed>yes</define-tag>
<define-tag fixed-section>no</define-tag>

#use wml::debian::security

