<define-tag pagetitle>DLA-3049-1 mailman</define-tag>
<define-tag report_date>2022-06-09</define-tag>
<define-tag secrefs>CVE-2021-43331 CVE-2021-43332 CVE-2021-44227 Bug#1000367 Bug#1001685</define-tag>
<define-tag packages>mailman</define-tag>
<define-tag isvulnerable>yes</define-tag>
<define-tag fixed>yes</define-tag>
<define-tag fixed-section>no</define-tag>

#use wml::debian::security

