<define-tag pagetitle>DLA-3113-1 libraw</define-tag>
<define-tag report_date>2022-9-16</define-tag>
<define-tag secrefs>CVE-2020-35530 CVE-2020-35531 CVE-2020-35532 CVE-2020-35533</define-tag>
<define-tag packages>libraw</define-tag>
<define-tag isvulnerable>yes</define-tag>
<define-tag fixed>yes</define-tag>
<define-tag fixed-section>no</define-tag>

#use wml::debian::security

