<define-tag pagetitle>DLA-2931-1 cyrus-sasl2</define-tag>
<define-tag report_date>2022-3-6</define-tag>
<define-tag secrefs>CVE-2022-24407</define-tag>
<define-tag packages>cyrus-sasl2</define-tag>
<define-tag isvulnerable>yes</define-tag>
<define-tag fixed>yes</define-tag>
<define-tag fixed-section>no</define-tag>

#use wml::debian::security

