<define-tag pagetitle>DLA-2898-1 nss</define-tag>
<define-tag report_date>2022-01-25</define-tag>
<define-tag secrefs>CVE-2022-22747</define-tag>
<define-tag packages>nss</define-tag>
<define-tag isvulnerable>yes</define-tag>
<define-tag fixed>yes</define-tag>
<define-tag fixed-section>no</define-tag>

#use wml::debian::security

