<define-tag pagetitle>DLA-2886-1 slurm-llnl</define-tag>
<define-tag report_date>2022-01-17</define-tag>
<define-tag secrefs>CVE-2019-12838 CVE-2020-12693 CVE-2020-27745 CVE-2021-31215 Bug#931880 Bug#961406 Bug#974721 Bug#988439</define-tag>
<define-tag packages>slurm-llnl</define-tag>
<define-tag isvulnerable>yes</define-tag>
<define-tag fixed>yes</define-tag>
<define-tag fixed-section>no</define-tag>

#use wml::debian::security

