<define-tag pagetitle>DLA-3005-1 lrzip</define-tag>
<define-tag report_date>2022-05-13</define-tag>
<define-tag secrefs>CVE-2022-28044</define-tag>
<define-tag packages>lrzip</define-tag>
<define-tag isvulnerable>yes</define-tag>
<define-tag fixed>yes</define-tag>
<define-tag fixed-section>no</define-tag>

#use wml::debian::security

