<define-tag pagetitle>DLA-3205-1 inetutils</define-tag>
<define-tag report_date>2022-11-25</define-tag>
<define-tag secrefs>CVE-2019-0053 CVE-2021-40491 CVE-2022-39028 Bug#945861 Bug#956084 Bug#993476</define-tag>
<define-tag packages>inetutils</define-tag>
<define-tag isvulnerable>yes</define-tag>
<define-tag fixed>yes</define-tag>
<define-tag fixed-section>no</define-tag>

#use wml::debian::security

