<define-tag pagetitle>DSA-4993-1 php7.3</define-tag>
<define-tag report_date>2021-10-25</define-tag>
<define-tag secrefs>CVE-2021-21703</define-tag>
<define-tag packages>php7.3</define-tag>
<define-tag isvulnerable>yes</define-tag>
<define-tag fixed>yes</define-tag>
<define-tag fixed-section>no</define-tag>

#use wml::debian::security



</dl>
