<define-tag pagetitle>DSA-4987-1 squashfs-tools</define-tag>
<define-tag report_date>2021-10-15</define-tag>
<define-tag secrefs>CVE-2021-41072 Bug#994262</define-tag>
<define-tag packages>squashfs-tools</define-tag>
<define-tag isvulnerable>yes</define-tag>
<define-tag fixed>yes</define-tag>
<define-tag fixed-section>no</define-tag>

#use wml::debian::security



</dl>
