<define-tag pagetitle>DSA-4991-1 mailman</define-tag>
<define-tag report_date>2021-10-22</define-tag>
<define-tag secrefs>CVE-2020-12108 CVE-2020-15011 CVE-2021-42096 CVE-2021-42097</define-tag>
<define-tag packages>mailman</define-tag>
<define-tag isvulnerable>yes</define-tag>
<define-tag fixed>yes</define-tag>
<define-tag fixed-section>no</define-tag>

#use wml::debian::security



</dl>
