<define-tag pagetitle>DSA-4805-1 trafficserver</define-tag>
<define-tag report_date>2020-12-07</define-tag>
<define-tag secrefs>CVE-2020-17508 CVE-2020-17509</define-tag>
<define-tag packages>trafficserver</define-tag>
<define-tag isvulnerable>yes</define-tag>
<define-tag fixed>yes</define-tag>
<define-tag fixed-section>no</define-tag>

#use wml::debian::security



</dl>
