<define-tag pagetitle>DSA-4749-1 firefox-esr</define-tag>
<define-tag report_date>2020-8-26</define-tag>
<define-tag secrefs>CVE-2020-15664 CVE-2020-15669</define-tag>
<define-tag packages>firefox-esr</define-tag>
<define-tag isvulnerable>yes</define-tag>
<define-tag fixed>yes</define-tag>
<define-tag fixed-section>no</define-tag>

#use wml::debian::security



</dl>
