<define-tag pagetitle>DSA-4735-1 grub2</define-tag>
<define-tag report_date>2020-7-29</define-tag>
<define-tag secrefs>CVE-2020-10713 CVE-2020-14308 CVE-2020-14309 CVE-2020-14310 CVE-2020-14311 CVE-2020-15706 CVE-2020-15707</define-tag>
<define-tag packages>grub2</define-tag>
<define-tag isvulnerable>yes</define-tag>
<define-tag fixed>yes</define-tag>
<define-tag fixed-section>no</define-tag>

#use wml::debian::security



</dl>
