<define-tag pagetitle>DSA-4708-1 neomutt</define-tag>
<define-tag report_date>2020-6-21</define-tag>
<define-tag secrefs>CVE-2020-14093 CVE-2020-14954</define-tag>
<define-tag packages>neomutt</define-tag>
<define-tag isvulnerable>yes</define-tag>
<define-tag fixed>yes</define-tag>
<define-tag fixed-section>no</define-tag>

#use wml::debian::security



</dl>
