<define-tag pagetitle>DSA-4605-1 openjdk-11</define-tag>
<define-tag report_date>2020-1-19</define-tag>
<define-tag secrefs>CVE-2020-2583 CVE-2020-2590 CVE-2020-2593 CVE-2020-2601 CVE-2020-2604 CVE-2020-2654 CVE-2020-2655</define-tag>
<define-tag packages>openjdk-11</define-tag>
<define-tag isvulnerable>yes</define-tag>
<define-tag fixed>yes</define-tag>
<define-tag fixed-section>no</define-tag>

#use wml::debian::security



</dl>
