<define-tag pagetitle>DSA-4625-1 thunderbird</define-tag>
<define-tag report_date>2020-2-15</define-tag>
<define-tag secrefs>CVE-2020-6792 CVE-2020-6793 CVE-2020-6794 CVE-2020-6795 CVE-2020-6798 CVE-2020-6800</define-tag>
<define-tag packages>thunderbird</define-tag>
<define-tag isvulnerable>yes</define-tag>
<define-tag fixed>yes</define-tag>
<define-tag fixed-section>no</define-tag>

#use wml::debian::security



</dl>
