<define-tag pagetitle>DLA-2678-1 ruby-nokogiri</define-tag>
<define-tag report_date>2021-6-06</define-tag>
<define-tag secrefs>CVE-2020-26247 Bug#978967</define-tag>
<define-tag packages>ruby-nokogiri</define-tag>
<define-tag isvulnerable>yes</define-tag>
<define-tag fixed>yes</define-tag>
<define-tag fixed-section>no</define-tag>

#use wml::debian::security

