<define-tag pagetitle>DLA-2560-1 qemu</define-tag>
<define-tag report_date>2021-02-18</define-tag>
<define-tag secrefs>CVE-2020-15469 CVE-2020-15859 CVE-2020-25084 CVE-2020-28916 CVE-2020-29130 CVE-2020-29443 CVE-2021-20181 CVE-2021-20221 Bug#970253 Bug#965978 Bug#970539 Bug#974687 Bug#976388</define-tag>
<define-tag packages>qemu</define-tag>
<define-tag isvulnerable>yes</define-tag>
<define-tag fixed>yes</define-tag>
<define-tag fixed-section>no</define-tag>

#use wml::debian::security

