<define-tag pagetitle>DLA-2541-1 thunderbird</define-tag>
<define-tag report_date>2021-02-02</define-tag>
<define-tag secrefs>CVE-2020-15685 CVE-2020-16044 CVE-2020-26976 CVE-2021-23953 CVE-2021-23954 CVE-2021-23960 CVE-2021-23964</define-tag>
<define-tag packages>thunderbird</define-tag>
<define-tag isvulnerable>yes</define-tag>
<define-tag fixed>yes</define-tag>
<define-tag fixed-section>no</define-tag>

#use wml::debian::security

