<define-tag pagetitle>DLA-2553-1 xcftools</define-tag>
<define-tag report_date>2021-2-10</define-tag>
<define-tag secrefs>CVE-2019-5086 CVE-2019-5087 Bug#945317</define-tag>
<define-tag packages>xcftools</define-tag>
<define-tag isvulnerable>yes</define-tag>
<define-tag fixed>yes</define-tag>
<define-tag fixed-section>no</define-tag>

#use wml::debian::security

