<define-tag pagetitle>DLA-2531-1 python-bottle</define-tag>
<define-tag report_date>2021-01-25</define-tag>
<define-tag secrefs>CVE-2020-28473</define-tag>
<define-tag packages>python-bottle</define-tag>
<define-tag isvulnerable>yes</define-tag>
<define-tag fixed>yes</define-tag>
<define-tag fixed-section>no</define-tag>

#use wml::debian::security

