<define-tag pagetitle>DLA-2817-1 postgresql-9.6</define-tag>
<define-tag report_date>2021-11-12</define-tag>
<define-tag secrefs>CVE-2021-23214 CVE-2021-23222</define-tag>
<define-tag packages>postgresql-9.6</define-tag>
<define-tag isvulnerable>yes</define-tag>
<define-tag fixed>yes</define-tag>
<define-tag fixed-section>no</define-tag>

#use wml::debian::security

