<define-tag pagetitle>DSA-1975-1</define-tag>
<define-tag report_date>2010-01-20</define-tag>
<define-tag packages> </define-tag>
<define-tag isvulnerable>no</define-tag>
<define-tag fixed-section>no</define-tag>

#use wml::debian::security



</dl>
