<define-tag pagetitle>DSA-5529-1 slurm-wlm</define-tag>
<define-tag report_date>2023-10-17</define-tag>
<define-tag secrefs>CVE-2023-41914</define-tag>
<define-tag packages>slurm-wlm</define-tag>
<define-tag isvulnerable>yes</define-tag>
<define-tag fixed>yes</define-tag>
<define-tag fixed-section>no</define-tag>

#use wml::debian::security



</dl>
