<define-tag pagetitle>DSA-5527-1 webkit2gtk</define-tag>
<define-tag report_date>2023-10-12</define-tag>
<define-tag secrefs>CVE-2023-39928 CVE-2023-41074 CVE-2023-41993</define-tag>
<define-tag packages>webkit2gtk</define-tag>
<define-tag isvulnerable>yes</define-tag>
<define-tag fixed>yes</define-tag>
<define-tag fixed-section>no</define-tag>

#use wml::debian::security



</dl>
