<define-tag pagetitle>DSA-5548-1 openjdk-17</define-tag>
<define-tag report_date>2023-11-05</define-tag>
<define-tag secrefs>CVE-2023-22025 CVE-2023-22081</define-tag>
<define-tag packages>openjdk-17</define-tag>
<define-tag isvulnerable>yes</define-tag>
<define-tag fixed>yes</define-tag>
<define-tag fixed-section>no</define-tag>

#use wml::debian::security



</dl>
