<define-tag pagetitle>DSA-5332-1 git</define-tag>
<define-tag report_date>2023-1-29</define-tag>
<define-tag secrefs>CVE-2022-23521 CVE-2022-24765 CVE-2022-29187 CVE-2022-39253 CVE-2022-39260 CVE-2022-41903 Bug#1014848 Bug#1022046 Bug#1029114</define-tag>
<define-tag packages>git</define-tag>
<define-tag isvulnerable>yes</define-tag>
<define-tag fixed>yes</define-tag>
<define-tag fixed-section>no</define-tag>

#use wml::debian::security



</dl>
