<define-tag pagetitle>DSA-5543-1 open-vm-tools</define-tag>
<define-tag report_date>2023-10-31</define-tag>
<define-tag secrefs>CVE-2023-34058 CVE-2023-34059</define-tag>
<define-tag packages>open-vm-tools</define-tag>
<define-tag isvulnerable>yes</define-tag>
<define-tag fixed>yes</define-tag>
<define-tag fixed-section>no</define-tag>

#use wml::debian::security



</dl>
