<define-tag pagetitle>DSA-5323-1 libitext5-java</define-tag>
<define-tag report_date>2023-1-19</define-tag>
<define-tag secrefs>CVE-2021-43113 Bug#1014597</define-tag>
<define-tag packages>libitext5-java</define-tag>
<define-tag isvulnerable>yes</define-tag>
<define-tag fixed>yes</define-tag>
<define-tag fixed-section>no</define-tag>

#use wml::debian::security



</dl>
