<define-tag pagetitle>DSA-5344-1 heimdal</define-tag>
<define-tag report_date>2023-2-08</define-tag>
<define-tag secrefs>CVE-2022-45142 Bug#1030849</define-tag>
<define-tag packages>heimdal</define-tag>
<define-tag isvulnerable>yes</define-tag>
<define-tag fixed>yes</define-tag>
<define-tag fixed-section>no</define-tag>

#use wml::debian::security



</dl>
