<define-tag pagetitle>DSA-5547-1 pmix</define-tag>
<define-tag report_date>2023-11-04</define-tag>
<define-tag secrefs>CVE-2023-41915 Bug#1051729</define-tag>
<define-tag packages>pmix</define-tag>
<define-tag isvulnerable>yes</define-tag>
<define-tag fixed>yes</define-tag>
<define-tag fixed-section>no</define-tag>

#use wml::debian::security



</dl>
