<define-tag pagetitle>DSA-5514-1 glibc</define-tag>
<define-tag report_date>2023-10-03</define-tag>
<define-tag secrefs>CVE-2023-4911</define-tag>
<define-tag packages>glibc</define-tag>
<define-tag isvulnerable>yes</define-tag>
<define-tag fixed>yes</define-tag>
<define-tag fixed-section>no</define-tag>

#use wml::debian::security



</dl>
