<define-tag pagetitle>DSA-5385-1 firefox-esr</define-tag>
<define-tag report_date>2023-4-12</define-tag>
<define-tag secrefs>CVE-2023-1945 CVE-2023-29533 CVE-2023-29535 CVE-2023-29536 CVE-2023-29539 CVE-2023-29541 CVE-2023-29548 CVE-2023-29550 Bug#982794</define-tag>
<define-tag packages>firefox-esr</define-tag>
<define-tag isvulnerable>yes</define-tag>
<define-tag fixed>yes</define-tag>
<define-tag fixed-section>no</define-tag>

#use wml::debian::security



</dl>
