<define-tag pagetitle>DSA-5363-1 php7.4</define-tag>
<define-tag report_date>2023-2-24</define-tag>
<define-tag secrefs>CVE-2023-0567 CVE-2023-0568 CVE-2023-0662 CVE-2022-31631</define-tag>
<define-tag packages>php7.4</define-tag>
<define-tag isvulnerable>yes</define-tag>
<define-tag fixed>yes</define-tag>
<define-tag fixed-section>no</define-tag>

#use wml::debian::security



</dl>
