<define-tag pagetitle>DSA-5423-1 thunderbird</define-tag>
<define-tag report_date>2023-6-11</define-tag>
<define-tag secrefs>CVE-2023-34414 CVE-2023-34416</define-tag>
<define-tag packages>thunderbird</define-tag>
<define-tag isvulnerable>yes</define-tag>
<define-tag fixed>yes</define-tag>
<define-tag fixed-section>no</define-tag>

#use wml::debian::security



</dl>
