<define-tag pagetitle>DSA-5487-1 chromium</define-tag>
<define-tag report_date>2023-8-31</define-tag>
<define-tag secrefs>CVE-2023-4572 Bug#1024981</define-tag>
<define-tag packages>chromium</define-tag>
<define-tag isvulnerable>yes</define-tag>
<define-tag fixed>yes</define-tag>
<define-tag fixed-section>no</define-tag>

#use wml::debian::security



</dl>
