<define-tag pagetitle>DSA-5462-1 linux</define-tag>
<define-tag report_date>2023-7-30</define-tag>
<define-tag secrefs>CVE-2023-20593</define-tag>
<define-tag packages>linux</define-tag>
<define-tag isvulnerable>yes</define-tag>
<define-tag fixed>yes</define-tag>
<define-tag fixed-section>no</define-tag>

#use wml::debian::security



</dl>
