<define-tag pagetitle>DSA-5519-1 grub2</define-tag>
<define-tag report_date>2023-10-06</define-tag>
<define-tag secrefs>CVE-2023-4692 CVE-2023-4693</define-tag>
<define-tag packages>grub2</define-tag>
<define-tag isvulnerable>yes</define-tag>
<define-tag fixed>yes</define-tag>
<define-tag fixed-section>no</define-tag>

#use wml::debian::security



</dl>
