<define-tag pagetitle>DSA-5499-1 chromium</define-tag>
<define-tag report_date>2023-9-18</define-tag>
<define-tag secrefs>CVE-2023-4900 CVE-2023-4901 CVE-2023-4902 CVE-2023-4903 CVE-2023-4904 CVE-2023-4905 CVE-2023-4906 CVE-2023-4907 CVE-2023-4908 CVE-2023-4909 Bug#1042111</define-tag>
<define-tag packages>chromium</define-tag>
<define-tag isvulnerable>yes</define-tag>
<define-tag fixed>yes</define-tag>
<define-tag fixed-section>no</define-tag>

#use wml::debian::security



</dl>
