<define-tag pagetitle>DSA-5469-1 thunderbird</define-tag>
<define-tag report_date>2023-8-05</define-tag>
<define-tag secrefs>CVE-2023-4045 CVE-2023-4046 CVE-2023-4047 CVE-2023-4048 CVE-2023-4049 CVE-2023-4050 CVE-2023-4055 CVE-2023-4056</define-tag>
<define-tag packages>thunderbird</define-tag>
<define-tag isvulnerable>yes</define-tag>
<define-tag fixed>yes</define-tag>
<define-tag fixed-section>no</define-tag>

#use wml::debian::security



</dl>
