<define-tag pagetitle>DSA-5495-1 frr</define-tag>
<define-tag report_date>2023-9-11</define-tag>
<define-tag secrefs>CVE-2022-36440 CVE-2022-40302 CVE-2022-40318 CVE-2022-43681 CVE-2023-31490 CVE-2023-38802 CVE-2023-41358 Bug#1035829 Bug#1036062</define-tag>
<define-tag packages>frr</define-tag>
<define-tag isvulnerable>yes</define-tag>
<define-tag fixed>yes</define-tag>
<define-tag fixed-section>no</define-tag>

#use wml::debian::security



</dl>
