<define-tag pagetitle>DSA-5320-1 tor</define-tag>
<define-tag report_date>2023-1-16</define-tag>
<define-tag secrefs>CVE-2023-23589</define-tag>
<define-tag packages>tor</define-tag>
<define-tag isvulnerable>yes</define-tag>
<define-tag fixed>yes</define-tag>
<define-tag fixed-section>no</define-tag>

#use wml::debian::security



</dl>
