<define-tag pagetitle>DLA-1207-1 erlang</define-tag>
<define-tag report_date>2017-12-15</define-tag>
<define-tag secrefs>CVE-2017-1000385</define-tag>
<define-tag packages>erlang</define-tag>
<define-tag isvulnerable>yes</define-tag>
<define-tag fixed>yes</define-tag>
<define-tag fixed-section>no</define-tag>

#use wml::debian::security

