<define-tag pagetitle>DLA-848-1 freetype</define-tag>
<define-tag report_date>2017-3-7</define-tag>
<define-tag secrefs>CVE-2016-10244 Bug##856971</define-tag>
<define-tag packages>freetype</define-tag>
<define-tag isvulnerable>yes</define-tag>
<define-tag fixed>yes</define-tag>
<define-tag fixed-section>no</define-tag>

#use wml::debian::security

