<define-tag pagetitle>DLA-1154-1 graphicsmagick</define-tag>
<define-tag report_date>2017-10-31</define-tag>
<define-tag secrefs>CVE-2017-14103 CVE-2017-14314 CVE-2017-14504 CVE-2017-14733 CVE-2017-14994 CVE-2017-14997 CVE-2017-15930 Bug#879999</define-tag>
<define-tag packages>graphicsmagick</define-tag>
<define-tag isvulnerable>yes</define-tag>
<define-tag fixed>yes</define-tag>
<define-tag fixed-section>no</define-tag>

#use wml::debian::security

