<define-tag pagetitle>DLA-900-1 freetype</define-tag>
<define-tag report_date>2017-4-17</define-tag>
<define-tag secrefs>CVE-2016-10328 Bug#860303</define-tag>
<define-tag packages>freetype</define-tag>
<define-tag isvulnerable>yes</define-tag>
<define-tag fixed>yes</define-tag>
<define-tag fixed-section>no</define-tag>

#use wml::debian::security

