<define-tag pagetitle>DLA-881-1 ejabberd</define-tag>
<define-tag report_date>2017-4-1</define-tag>
<define-tag secrefs>CVE-2014-8760 Bug#767521 Bug#767535</define-tag>
<define-tag packages>ejabberd</define-tag>
<define-tag isvulnerable>yes</define-tag>
<define-tag fixed>yes</define-tag>
<define-tag fixed-section>no</define-tag>

#use wml::debian::security

