<define-tag pagetitle>DLA-1100-1 gdk-pixbuf</define-tag>
<define-tag report_date>2017-9-19</define-tag>
<define-tag secrefs>CVE-2017-2862 Bug#874552</define-tag>
<define-tag packages>gdk-pixbuf</define-tag>
<define-tag isvulnerable>yes</define-tag>
<define-tag fixed>yes</define-tag>
<define-tag fixed-section>no</define-tag>

#use wml::debian::security

