<define-tag pagetitle>DLA-3619-1 batik</define-tag>
<define-tag report_date>2023-10-14</define-tag>
<define-tag secrefs>CVE-2020-11987 CVE-2022-38398 CVE-2022-38648 CVE-2022-40146 CVE-2022-44729 CVE-2022-44730 Bug#984829 Bug#1020589</define-tag>
<define-tag packages>batik</define-tag>
<define-tag isvulnerable>yes</define-tag>
<define-tag fixed>yes</define-tag>
<define-tag fixed-section>no</define-tag>

#use wml::debian::security

