<define-tag pagetitle>DLA-3476-1 cups</define-tag>
<define-tag report_date>2023-6-30</define-tag>
<define-tag secrefs>CVE-2023-34241</define-tag>
<define-tag packages>cups</define-tag>
<define-tag isvulnerable>yes</define-tag>
<define-tag fixed>yes</define-tag>
<define-tag fixed-section>no</define-tag>

#use wml::debian::security

