<define-tag pagetitle>DLA-3406-1 sniproxy</define-tag>
<define-tag report_date>2023-4-30</define-tag>
<define-tag secrefs>CVE-2023-25076</define-tag>
<define-tag packages>sniproxy</define-tag>
<define-tag isvulnerable>yes</define-tag>
<define-tag fixed>yes</define-tag>
<define-tag fixed-section>no</define-tag>

#use wml::debian::security

