<define-tag pagetitle>DLA-3571-1 openjdk-11</define-tag>
<define-tag report_date>2023-09-19</define-tag>
<define-tag secrefs>CVE-2023-21930 CVE-2023-21937 CVE-2023-21938 CVE-2023-21939 CVE-2023-21954 CVE-2023-21967 CVE-2023-21968 CVE-2023-22006 CVE-2023-22036 CVE-2023-22041 CVE-2023-22045 CVE-2023-22049</define-tag>
<define-tag packages>openjdk-11</define-tag>
<define-tag isvulnerable>yes</define-tag>
<define-tag fixed>yes</define-tag>
<define-tag fixed-section>no</define-tag>

#use wml::debian::security

