<define-tag pagetitle>DLA-3522-1 hdf5</define-tag>
<define-tag report_date>2023-8-09</define-tag>
<define-tag secrefs>CVE-2018-11206 CVE-2018-17233 CVE-2018-17234 CVE-2018-17237 CVE-2018-17434 CVE-2018-17437</define-tag>
<define-tag packages>hdf5</define-tag>
<define-tag isvulnerable>yes</define-tag>
<define-tag fixed>yes</define-tag>
<define-tag fixed-section>no</define-tag>

#use wml::debian::security

