<define-tag pagetitle>DLA-3539-1 qt4-x11</define-tag>
<define-tag report_date>2023-08-22</define-tag>
<define-tag secrefs>CVE-2021-3481 CVE-2021-45930 CVE-2023-32573 CVE-2023-32763 CVE-2023-34410 CVE-2023-37369 CVE-2023-38197</define-tag>
<define-tag packages>qt4-x11</define-tag>
<define-tag isvulnerable>yes</define-tag>
<define-tag fixed>yes</define-tag>
<define-tag fixed-section>no</define-tag>

#use wml::debian::security

