<define-tag pagetitle>DLA-3490-1 thunderbird</define-tag>
<define-tag report_date>2023-07-11</define-tag>
<define-tag secrefs>CVE-2023-37201 CVE-2023-37202 CVE-2023-37207 CVE-2023-37208 CVE-2023-37211</define-tag>
<define-tag packages>thunderbird</define-tag>
<define-tag isvulnerable>yes</define-tag>
<define-tag fixed>yes</define-tag>
<define-tag fixed-section>no</define-tag>

#use wml::debian::security

