<define-tag pagetitle>DLA-3533-1 lxc</define-tag>
<define-tag report_date>2023-08-17</define-tag>
<define-tag secrefs>CVE-2022-47952</define-tag>
<define-tag packages>lxc</define-tag>
<define-tag isvulnerable>yes</define-tag>
<define-tag fixed>yes</define-tag>
<define-tag fixed-section>no</define-tag>

#use wml::debian::security

