<define-tag pagetitle>DLA-3564-1 e2guardian</define-tag>
<define-tag report_date>2023-09-12</define-tag>
<define-tag secrefs>CVE-2021-44273</define-tag>
<define-tag packages>e2guardian</define-tag>
<define-tag isvulnerable>yes</define-tag>
<define-tag fixed>yes</define-tag>
<define-tag fixed-section>no</define-tag>

#use wml::debian::security
