<define-tag pagetitle>DLA-3611-1 inetutils</define-tag>
<define-tag report_date>2023-10-08</define-tag>
<define-tag secrefs>CVE-2019-0053 CVE-2023-40303 Bug#945861 Bug#1049365</define-tag>
<define-tag packages>inetutils</define-tag>
<define-tag isvulnerable>yes</define-tag>
<define-tag fixed>yes</define-tag>
<define-tag fixed-section>no</define-tag>

#use wml::debian::security

