<define-tag pagetitle>DLA-3574-1 mutt</define-tag>
<define-tag report_date>2023-09-20</define-tag>
<define-tag secrefs>CVE-2023-4874 CVE-2023-4875 Bug#1051563</define-tag>
<define-tag packages>mutt</define-tag>
<define-tag isvulnerable>yes</define-tag>
<define-tag fixed>yes</define-tag>
<define-tag fixed-section>no</define-tag>

#use wml::debian::security

