<define-tag pagetitle>DLA-3602-1 libx11</define-tag>
<define-tag report_date>2023-10-05</define-tag>
<define-tag secrefs>CVE-2023-43785 CVE-2023-43786 CVE-2023-43787</define-tag>
<define-tag packages>libx11</define-tag>
<define-tag isvulnerable>yes</define-tag>
<define-tag fixed>yes</define-tag>
<define-tag fixed-section>no</define-tag>

#use wml::debian::security

