<define-tag pagetitle>DLA-3401-1 apache2</define-tag>
<define-tag report_date>2023-04-24</define-tag>
<define-tag secrefs>CVE-2023-25690 CVE-2023-27522 Bug#1032476</define-tag>
<define-tag packages>apache2</define-tag>
<define-tag isvulnerable>yes</define-tag>
<define-tag fixed>yes</define-tag>
<define-tag fixed-section>no</define-tag>

#use wml::debian::security

