<define-tag pagetitle>DLA-3630-1 roundcube</define-tag>
<define-tag report_date>2023-10-24</define-tag>
<define-tag secrefs>CVE-2023-5631 Bug#1054079</define-tag>
<define-tag packages>roundcube</define-tag>
<define-tag isvulnerable>yes</define-tag>
<define-tag fixed>yes</define-tag>
<define-tag fixed-section>no</define-tag>

#use wml::debian::security

