<define-tag pagetitle>DLA-3646-1 open-vm-tools</define-tag>
<define-tag report_date>2023-11-05</define-tag>
<define-tag secrefs>CVE-2023-34058 CVE-2023-34059 Bug#1054666</define-tag>
<define-tag packages>open-vm-tools</define-tag>
<define-tag isvulnerable>yes</define-tag>
<define-tag fixed>yes</define-tag>
<define-tag fixed-section>no</define-tag>

#use wml::debian::security

