<define-tag pagetitle>DLA-3538-2 zabbix</define-tag>
<define-tag report_date>2023-10-21</define-tag>
<define-tag secrefs>Bug#1051300</define-tag>
<define-tag packages>zabbix</define-tag>
<define-tag isvulnerable>yes</define-tag>
<define-tag fixed>yes</define-tag>
<define-tag fixed-section>no</define-tag>

#use wml::debian::security

