<define-tag pagetitle>DLA-3477-1 python3.7</define-tag>
<define-tag report_date>2023-06-30</define-tag>
<define-tag secrefs>CVE-2015-20107 CVE-2020-10735 CVE-2021-3426 CVE-2021-3733 CVE-2021-3737 CVE-2021-4189 CVE-2022-45061</define-tag>
<define-tag packages>python3.7</define-tag>
<define-tag isvulnerable>yes</define-tag>
<define-tag fixed>yes</define-tag>
<define-tag fixed-section>no</define-tag>

#use wml::debian::security

