<define-tag pagetitle>DLA-3472-1 libx11</define-tag>
<define-tag report_date>2023-06-26</define-tag>
<define-tag secrefs>CVE-2023-3138 bug#1038133</define-tag>
<define-tag packages>libx11</define-tag>
<define-tag isvulnerable>yes</define-tag>
<define-tag fixed>yes</define-tag>
<define-tag fixed-section>no</define-tag>

#use wml::debian::security

