<define-tag pagetitle>DLA-3395-2 golang-1.11</define-tag>
<define-tag report_date>2023-04-20</define-tag>
<define-tag packages>golang-1.11</define-tag>
<define-tag isvulnerable>no</define-tag>
<define-tag fixed>yes</define-tag>
<define-tag fixed-section>no</define-tag>

#use wml::debian::security

