<define-tag pagetitle>DLA-3621-1 nghttp2</define-tag>
<define-tag report_date>2023-10-16</define-tag>
<define-tag secrefs>CVE-2020-11080 CVE-2023-44487 Bug#962145 Bug#1053769</define-tag>
<define-tag packages>nghttp2</define-tag>
<define-tag isvulnerable>yes</define-tag>
<define-tag fixed>yes</define-tag>
<define-tag fixed-section>no</define-tag>

#use wml::debian::security

