<define-tag pagetitle>DLA-3541-1 w3m</define-tag>
<define-tag report_date>2023-08-24</define-tag>
<define-tag secrefs>CVE-2022-38223 Bug#1019599</define-tag>
<define-tag packages>w3m</define-tag>
<define-tag isvulnerable>yes</define-tag>
<define-tag fixed>yes</define-tag>
<define-tag fixed-section>no</define-tag>

#use wml::debian::security

