<define-tag pagetitle>DLA-3642-1 request-tracker4</define-tag>
<define-tag report_date>2023-10-31</define-tag>
<define-tag secrefs>CVE-2023-41259 CVE-2023-41260 Bug#1054516</define-tag>
<define-tag packages>request-tracker4</define-tag>
<define-tag isvulnerable>yes</define-tag>
<define-tag fixed>yes</define-tag>
<define-tag fixed-section>no</define-tag>

#use wml::debian::security

