<define-tag pagetitle>DLA-3389-1 lldpd</define-tag>
<define-tag report_date>2023-04-10</define-tag>
<define-tag secrefs>CVE-2020-27827 CVE-2021-43612</define-tag>
<define-tag packages>lldpd</define-tag>
<define-tag isvulnerable>yes</define-tag>
<define-tag fixed>yes</define-tag>
<define-tag fixed-section>no</define-tag>

#use wml::debian::security
