<define-tag pagetitle>DLA-3629-1 ceph</define-tag>
<define-tag report_date>2023-10-23</define-tag>
<define-tag secrefs>CVE-2019-10222 CVE-2020-1700 CVE-2020-1760 CVE-2020-10753 CVE-2020-12059 CVE-2020-25678 CVE-2020-27781 CVE-2021-3524 CVE-2021-3531 CVE-2021-3979 CVE-2021-20288 CVE-2023-43040 Bug#1053690</define-tag>
<define-tag packages>ceph</define-tag>
<define-tag isvulnerable>yes</define-tag>
<define-tag fixed>yes</define-tag>
<define-tag fixed-section>no</define-tag>

#use wml::debian::security

