<define-tag pagetitle>DLA-2363-1 asyncpg</define-tag>
<define-tag report_date>2020-09-03</define-tag>
<define-tag secrefs>CVE-2020-17446</define-tag>
<define-tag packages>asyncpg</define-tag>
<define-tag isvulnerable>yes</define-tag>
<define-tag fixed>yes</define-tag>
<define-tag fixed-section>no</define-tag>

#use wml::debian::security

