<define-tag pagetitle>DLA-1552-1 ghostscript</define-tag>
<define-tag report_date>2018-10-22</define-tag>
<define-tag secrefs>CVE-2018-17961 CVE-2018-18073 CVE-2018-18284 Bug#910678 Bug#910758 Bug#911175</define-tag>
<define-tag packages>ghostscript</define-tag>
<define-tag isvulnerable>yes</define-tag>
<define-tag fixed>yes</define-tag>
<define-tag fixed-section>no</define-tag>

#use wml::debian::security

