<define-tag pagetitle>DLA-1509-1 php5</define-tag>
<define-tag report_date>2018-9-20</define-tag>
<define-tag secrefs>CVE-2018-17082</define-tag>
<define-tag packages>php5</define-tag>
<define-tag isvulnerable>yes</define-tag>
<define-tag fixed>yes</define-tag>
<define-tag fixed-section>no</define-tag>

#use wml::debian::security

