<define-tag pagetitle>DLA-1424-1 linux-latest-4.9</define-tag>
<define-tag report_date>2018-7-18</define-tag>
<define-tag packages>linux-latest-4.9</define-tag>
<define-tag isvulnerable>yes</define-tag>
<define-tag fixed>yes</define-tag>
<define-tag fixed-section>no</define-tag>

#use wml::debian::security

