<define-tag pagetitle>DLA-1313-1 isc-dhcp</define-tag>
<define-tag report_date>2018-3-22</define-tag>
<define-tag secrefs>CVE-2018-5732 CVE-2018-5733</define-tag>
<define-tag packages>isc-dhcp</define-tag>
<define-tag isvulnerable>yes</define-tag>
<define-tag fixed>yes</define-tag>
<define-tag fixed-section>no</define-tag>

#use wml::debian::security

