<define-tag pagetitle>DSA-4389-1 libu2f-host</define-tag>
<define-tag report_date>2019-2-11</define-tag>
<define-tag secrefs>CVE-2018-20340 Bug#921725</define-tag>
<define-tag packages>libu2f-host</define-tag>
<define-tag isvulnerable>yes</define-tag>
<define-tag fixed>yes</define-tag>
<define-tag fixed-section>no</define-tag>

#use wml::debian::security



</dl>
