<define-tag pagetitle>DSA-4557-1 libarchive</define-tag>
<define-tag report_date>2019-10-31</define-tag>
<define-tag secrefs>CVE-2019-18408</define-tag>
<define-tag packages>libarchive</define-tag>
<define-tag isvulnerable>yes</define-tag>
<define-tag fixed>yes</define-tag>
<define-tag fixed-section>no</define-tag>

#use wml::debian::security



</dl>
