<define-tag pagetitle>DSA-5252-1 libreoffice</define-tag>
<define-tag report_date>2022-10-12</define-tag>
<define-tag secrefs>CVE-2022-3140</define-tag>
<define-tag packages>libreoffice</define-tag>
<define-tag isvulnerable>yes</define-tag>
<define-tag fixed>yes</define-tag>
<define-tag fixed-section>no</define-tag>

#use wml::debian::security



</dl>
