<define-tag pagetitle>DSA-5242-1 maven-shared-utils</define-tag>
<define-tag report_date>2022-9-28</define-tag>
<define-tag secrefs>CVE-2022-29599 Bug#1012314</define-tag>
<define-tag packages>maven-shared-utils</define-tag>
<define-tag isvulnerable>yes</define-tag>
<define-tag fixed>yes</define-tag>
<define-tag fixed-section>no</define-tag>

#use wml::debian::security



</dl>
