<define-tag pagetitle>DSA-5209-1 net-snmp</define-tag>
<define-tag report_date>2022-8-16</define-tag>
<define-tag secrefs>CVE-2022-24805 CVE-2022-24806 CVE-2022-24807 CVE-2022-24808 CVE-2022-24809 CVE-2022-24810 Bug#1016139</define-tag>
<define-tag packages>net-snmp</define-tag>
<define-tag isvulnerable>yes</define-tag>
<define-tag fixed>yes</define-tag>
<define-tag fixed-section>no</define-tag>

#use wml::debian::security



</dl>
