<define-tag pagetitle>DSA-5300-1 pngcheck</define-tag>
<define-tag report_date>2022-12-12</define-tag>
<define-tag secrefs>CVE-2020-35511</define-tag>
<define-tag packages>pngcheck</define-tag>
<define-tag isvulnerable>yes</define-tag>
<define-tag fixed>yes</define-tag>
<define-tag fixed-section>no</define-tag>

#use wml::debian::security



</dl>
