<define-tag pagetitle>DSA-5305-1 libksba</define-tag>
<define-tag report_date>2022-12-21</define-tag>
<define-tag secrefs>CVE-2022-47629</define-tag>
<define-tag packages>libksba</define-tag>
<define-tag isvulnerable>yes</define-tag>
<define-tag fixed>yes</define-tag>
<define-tag fixed-section>no</define-tag>

#use wml::debian::security



</dl>
