<define-tag pagetitle>DSA-5181-1 request-tracker4</define-tag>
<define-tag report_date>2022-7-13</define-tag>
<define-tag secrefs>CVE-2022-25802</define-tag>
<define-tag packages>request-tracker4</define-tag>
<define-tag isvulnerable>yes</define-tag>
<define-tag fixed>yes</define-tag>
<define-tag fixed-section>no</define-tag>

#use wml::debian::security



</dl>
