<define-tag pagetitle>DSA-5185-1 mat2</define-tag>
<define-tag report_date>2022-7-15</define-tag>
<define-tag secrefs>CVE-2022-35410</define-tag>
<define-tag packages>mat2</define-tag>
<define-tag isvulnerable>yes</define-tag>
<define-tag fixed>yes</define-tag>
<define-tag fixed-section>no</define-tag>

#use wml::debian::security



</dl>
