<define-tag pagetitle>DSA-5145-1 lrzip</define-tag>
<define-tag report_date>2022-5-24</define-tag>
<define-tag secrefs>CVE-2018-5786 CVE-2022-26291 CVE-2022-28044</define-tag>
<define-tag packages>lrzip</define-tag>
<define-tag isvulnerable>yes</define-tag>
<define-tag fixed>yes</define-tag>
<define-tag fixed-section>no</define-tag>

#use wml::debian::security



</dl>
