<define-tag pagetitle>DSA-5192-1 openjdk-17</define-tag>
<define-tag report_date>2022-7-26</define-tag>
<define-tag secrefs>CVE-2022-21540 CVE-2022-21541 CVE-2022-21549 CVE-2022-34169</define-tag>
<define-tag packages>openjdk-17</define-tag>
<define-tag isvulnerable>yes</define-tag>
<define-tag fixed>yes</define-tag>
<define-tag fixed-section>no</define-tag>

#use wml::debian::security



</dl>
