<define-tag pagetitle>DSA-5253-1 chromium</define-tag>
<define-tag report_date>2022-10-13</define-tag>
<define-tag secrefs>CVE-2022-3445 CVE-2022-3446 CVE-2022-3447 CVE-2022-3448 CVE-2022-3449 CVE-2022-3450</define-tag>
<define-tag packages>chromium</define-tag>
<define-tag isvulnerable>yes</define-tag>
<define-tag fixed>yes</define-tag>
<define-tag fixed-section>no</define-tag>

#use wml::debian::security



</dl>
