<define-tag pagetitle>DSA-5224-1 poppler</define-tag>
<define-tag report_date>2022-9-06</define-tag>
<define-tag secrefs>CVE-2022-27337 CVE-2022-38784 Bug#1010695 Bug#1018971</define-tag>
<define-tag packages>poppler</define-tag>
<define-tag isvulnerable>yes</define-tag>
<define-tag fixed>yes</define-tag>
<define-tag fixed-section>no</define-tag>

#use wml::debian::security



</dl>
