<define-tag pagetitle>DLA-1663-1 python3.4</define-tag>
<define-tag report_date>2019-2-7</define-tag>
<define-tag secrefs>CVE-2016-0772 CVE-2016-5636 CVE-2016-5699 CVE-2018-20406 CVE-2019-5010</define-tag>
<define-tag packages>python3.4</define-tag>
<define-tag isvulnerable>yes</define-tag>
<define-tag fixed>yes</define-tag>
<define-tag fixed-section>no</define-tag>

#use wml::debian::security

