<define-tag pagetitle>DLA-1832-1 libvirt</define-tag>
<define-tag report_date>2019-06-24</define-tag>
<define-tag secrefs>CVE-2019-10161 CVE-2019-10167</define-tag>
<define-tag packages>libvirt</define-tag>
<define-tag isvulnerable>yes</define-tag>
<define-tag fixed>yes</define-tag>
<define-tag fixed-section>no</define-tag>

#use wml::debian::security
