<define-tag pagetitle>DLA-2016-1 ssvnc</define-tag>
<define-tag report_date>2019-11-29</define-tag>
<define-tag secrefs>CVE-2018-20020 CVE-2018-20021 CVE-2018-20022 CVE-2018-20024 Bug#945827</define-tag>
<define-tag packages>ssvnc</define-tag>
<define-tag isvulnerable>yes</define-tag>
<define-tag fixed>yes</define-tag>
<define-tag fixed-section>no</define-tag>

#use wml::debian::security

