<define-tag pagetitle>DLA-1829-1 firefox-esr</define-tag>
<define-tag report_date>2019-06-20</define-tag>
<define-tag secrefs>CVE-2019-11707</define-tag>
<define-tag packages>firefox-esr</define-tag>
<define-tag isvulnerable>yes</define-tag>
<define-tag fixed>yes</define-tag>
<define-tag fixed-section>no</define-tag>

#use wml::debian::security

