<define-tag pagetitle>DLA-717-1 moin</define-tag>
<define-tag report_date>2016-11-22</define-tag>
<define-tag secrefs>CVE-2016-7146 CVE-2016-9119 Bug#844338 Bug#844340</define-tag>
<define-tag packages>moin</define-tag>
<define-tag isvulnerable>yes</define-tag>
<define-tag fixed>yes</define-tag>
<define-tag fixed-section>no</define-tag>

#use wml::debian::security

