<define-tag pagetitle>DLA-635-1 dwarfutils</define-tag>
<define-tag report_date>2016-9-24</define-tag>
<define-tag secrefs>CVE-2016-7510 CVE-2016-7511</define-tag>
<define-tag packages>dwarfutils</define-tag>
<define-tag isvulnerable>yes</define-tag>
<define-tag fixed>yes</define-tag>
<define-tag fixed-section>no</define-tag>

#use wml::debian::security

