<define-tag pagetitle>DLA-646-1 zendframework</define-tag>
<define-tag report_date>2016-10-5</define-tag>
<define-tag secrefs>CVE-2016-4861</define-tag>
<define-tag packages>zendframework</define-tag>
<define-tag isvulnerable>yes</define-tag>
<define-tag fixed>yes</define-tag>
<define-tag fixed-section>no</define-tag>

#use wml::debian::security

